test/oszi_sensor_trigger_4.txt

#CHANNEL:CH1
#CLOCK=10.0mS
#SIZE=523264
#UNITS:V

0.1255
0.1412
0.1412
0.1412
0.1412
0.1255
0.1255
0.1412
0.1412
0.1412
0.1412
0.1412
0.1412
0.1412
0.1412
0.1412
0.1255
0.1255
0.1255
0.1412
0.1255
0.1412
0.1255
0.1412
0.1255
0.1412
0.1255
0.1412
0.1412
0.1412
0.1412
0.1412
0.1255
0.1412
0.1412
0.1255
0.1255
0.1255
0.1255
0.1412
0.1255
0.1412
0.1412
0.1412
0.1412
0.1412
0.1255
0.1412
0.1412
0.1412
0.1412
0.1412
0.1255
0.1255
0.1412
0.1412
0.1255
0.1412
0.1255
0.1412
0.1255
0.1412
0.1255
0.1412
0.1255
0.1412
0.1412
0.1412
0.1412
0.1412
0.1255
0.1255
0.1412
0.1255
0.1255
0.1255
0.1255
0.1412
0.1255
0.1412
0.1412
0.1255
0.1412
0.1255
0.1412
0.1255
0.1412
0.1412
0.1412
0.1255
0.1255
0.1255
0.1255
0.1255
0.1412
0.1412
0.1255
0.1412
0.1255
0.1255
0.1412
0.1412
0.1255
0.1412
0.1412
0.1255
0.1412
0.1412
0.1255
0.1412
0.1412
0.1412
0.1255
0.1255
0.1255
0.1255
0.1412
0.1412
0.1255
0.1255
0.1255
0.1255
0.1412
0.1255
0.1412
0.1412
0.1412
0.1412
0.1412
0.1412
0.1412
0.1255
0.1255
0.1255
0.1255
0.1255
0.1255
0.1255
0.1255
0.1255
0.1255
0.1412
0.1412
0.1412
0.1412
0.1412
0.1412
0.1412
0.1412
0.1412
0.1412
0.1412
0.1412
0.1412
0.1412
0.1412
0.1255
0.1255
0.1412
0.1412
0.1255
0.1412
0.1255
0.1412
0.1412
0.1412
0.1255
0.1569
0.1255
0.1255
0.1255
0.1255
0.1255
0.1255
0.1255
0.1255
0.1255
0.1255
0.1255
0.1412
0.1255
0.1412
0.1412
0.1412
0.1412
0.1412
0.1412
0.1412
0.1255
0.1255
0.1412
0.1255
0.1255
0.1255
0.1255
0.1412
0.1255
0.1412
0.1412
0.1412
0.1412
0.1412
0.1255
0.1412
0.1412
0.1412
0.1255
0.1255
0.1412
0.1255
0.1255
0.1412
0.1255
0.1412
0.1255
0.1255
0.1412
0.1412
0.1255
0.1412
0.1255
0.1255
0.1412
0.1412
0.1412
0.1412
0.1255
0.1255
0.1255
0.1255
0.1412
0.1255
0.1412
0.1412
0.1412
0.1412
0.1255
0.1255
0.1412
0.1255
0.1412
0.1412
0.1412
0.1255
0.1412
0.1255
0.1255
0.1255
0.1412
0.1255
0.1255
0.1255
0.1255
0.1412
0.1412
0.1412
0.1412
0.1255
0.1412
0.1412
0.1412
0.1412
0.1255
0.1412
0.1255
0.1255
0.1412
0.1255
0.1412
0.1255
0.1412
0.1412
0.1412
0.1255
0.1412
0.1412
0.1412
0.1412
0.1412
0.1412
0.1255
0.1412
0.1412
0.1255
0.1412
0.1255
0.1255
0.1412
0.1412
0.1255
0.1255
0.1255
0.1412
0.1255
0.1412
0.1412
0.1255
0.1255
0.1255
0.1412
0.1412
0.1255
0.1255
0.1255
0.1255
0.8314
1.4118
1.8353
2.1647
2.4314
2.5098
2.5098
2.5098
2.5098
2.5098
2.5098
2.5098
2.5098
2.5098
2.5098
2.5098
2.5098
2.5098
2.5098
2.5098
2.5098
2.5098
2.5098
2.5098
2.5098
2.5098
2.5098
2.5098
2.5098
2.5098
2.5098
2.5098
2.5098
2.5098
2.5098
2.5098
2.5098
2.5098
2.5098
2.5098
2.5098
2.5098
2.5098
2.5098
2.5098
2.5098
2.5098
2.5098
2.5098
2.5098
2.5098
2.5098
2.5098
2.5098
2.5098
2.5098
2.5098
2.5098
2.5098
2.5098
2.5098
2.5098
2.5098
2.5098
2.5098
2.5098
2.5098
2.5098
2.5098
2.5098
2.5098
2.5098
2.5098
2.5098
2.5098
2.5098
2.5098
2.5098
2.5098
2.5098
2.5098
2.5098
2.5098
2.5098
2.5098
2.5098
2.5098
2.5098
2.5098
2.5098
2.5098
2.5098
2.5098
2.5098
2.5098
2.5098
2.5098
2.5098
2.5098
2.5098
2.5098
2.5098
2.5098
2.5098
2.5098
2.5098
2.5098
2.5098
2.5098
2.5098
2.5098
2.5098
2.5098
2.5098
2.5098
2.5098
2.5098
2.5098
2.5098
2.5098
2.5098
2.5098
2.5098
2.5098
2.5098
2.5098
2.5098
2.5098
2.5098
2.5098
2.5098
2.5098
2.5098
2.5098
2.5098
2.5098
2.5098
2.5098
2.5098
2.5098
2.5098
2.5098
2.5098
2.5098
2.5098
2.5098
2.5098
2.5098
2.5098
2.5098
2.5098
2.5098
2.5098
2.5098
2.5098
2.5098
2.5098
2.5098
2.5098
2.5098
2.5098
2.5098
2.5098
2.5098
2.5098
2.5098
2.5098
2.5098
2.5098
2.5098
2.5098
2.5098
2.5098
2.5098
2.5098
2.5098
2.5098
2.5098
2.5098
2.5098
2.5098
2.5098
2.5098
2.5098
2.5098
2.5098
2.5098
2.5098
2.5098
2.5098
2.5098
2.5098
2.5098
2.5098
2.5098
2.5098
2.5098
2.5098
2.5098
2.5098
2.5098
2.5098
2.5098
2.5098
2.5098
2.5098
2.5098
2.5098
2.5098
2.5098
2.5098
2.5098
2.5098
2.5098
2.5098
2.5098
2.5098
2.5098
2.5098
2.5098
2.5098
2.5098
2.5098
2.5098
2.5098
2.5098
2.5098
2.5098
2.5098
2.5098
2.5098
2.5098
2.5098
2.5098
2.5098
2.5098
2.5098
2.5098
2.5098
2.5098
2.5098
2.5098
2.5098
2.5098
2.5098
2.5098
2.5098
2.5098
2.5098
2.5098
2.5098
2.5098
2.5098
2.5098
2.5098
2.5098
2.5098
2.5098
2.5098
2.5098
2.5098
2.5098
2.5098
2.5098
2.5098
2.5098
2.5098
2.5098
2.5098
2.5098
2.5098
2.5098
2.5098
2.5098
2.5098
2.5098
2.5098
2.5098
2.5098
2.5098
2.5098
2.5098
2.5098
2.5098
2.5098
2.5098
2.5098
2.5098
2.5098
2.5098
2.5098
2.5098
2.5098
2.5098
2.5098
2.5098
2.5098
2.5098
2.5098
2.5098
2.5098
2.5098
2.5098
2.5098
2.5098
2.5098
2.5098
2.5098
2.5098
2.5098
2.5098
2.5098
2.5098
2.5098
2.5098
2.5098
2.5098
2.5098
2.5098
2.5098
2.5098
2.5098
2.5098
2.5098
2.5098
2.5098
2.5098
2.5098
2.5098
2.5098
2.5098
2.5098
2.5098
2.5098
2.5098
2.5098
2.5098
2.5098
2.5098
2.5098
2.5098
2.5098
2.5098
2.5098
2.5098
2.5098
2.5098
2.5098
2.5098
2.5098
2.5098
2.5098
2.5098
2.5098
2.5098
2.5098
2.5098
2.5098
2.5098
2.5098
2.5098
2.5098
2.5098
2.5098
2.5098
2.5098
2.5098
2.5098
2.5098
2.5098
2.5098
2.5098
2.5098
2.5098
2.5098
2.5098
2.5098
2.5098
2.5098
2.5098
2.5098
2.5098
2.5098
2.5098
2.5098
2.5098
2.5098
2.5098
2.5098
2.5098
2.5098
2.5098
2.5098
2.5098
2.5098
2.5098
2.5098
2.5098
2.5098
2.5098
2.5098
2.5098
2.5098
2.5098
2.5098
2.5098
2.5098
2.5098
2.5098
2.5098
2.5098
2.5098
2.5098
2.5098
2.5098
2.5098
2.5098
2.5098
2.5098
2.5098
2.5098
2.5098
2.5098
2.5098
2.5098
2.5098
2.5098
2.5098
2.5098
2.5098
2.5098
2.5098
2.5098
2.5098
2.5098
2.5098
2.5098
2.5098
2.5098
2.5098
2.5098
2.5098
2.5098
2.5098
2.5098
2.5098
2.5098
2.5098
2.5098
2.5098
2.5098
2.5098
2.5098
2.5098
2.5098
2.5098
2.5098
2.5098
2.5098
2.5098
2.5098
2.5098
2.5098
2.5098
2.5098
2.5098
2.5098
2.5098
2.5098
2.5098
2.5098
2.5098
2.5098
2.5098
2.5098
2.5098
2.5098
2.5098
2.5098
2.5098
2.5098
2.5098
2.5098
2.5098
2.5098
2.5098
2.5098
2.5098
2.5098
2.5098
2.5098
2.5098
2.5098
2.5098
2.5098
2.5098
2.5098
2.5098
2.5098
2.5098
2.5098
2.5098
2.5098
2.5098
2.5098
2.5098
2.5098
2.5098
2.5098
2.5098
2.5098
2.5098
2.5098
2.5098
2.5098
2.5098
2.5098
2.5098
2.5098
2.5098
2.5098
2.5098
2.5098
2.5098
2.5098
2.5098
2.5098
2.5098
2.5098
2.5098
2.5098
2.5098
2.5098
2.5098
2.5098
2.5098
2.5098
2.5098
2.5098
2.5098
2.5098
2.5098
2.5098
2.5098
2.5098
2.5098
2.5098
2.5098
2.5098
2.5098
2.5098
2.5098
2.5098
2.5098
2.5098
2.5098
2.5098
2.5098
2.5098
2.5098
2.5098
2.5098
2.5098
2.5098
2.5098
2.5098
2.5098
2.5098
2.5098
2.5098
2.5098
2.5098
2.5098
2.5098
2.5098
2.5098
2.5098
2.5098
2.5098
2.5098
2.5098
2.5098
2.5098
2.5098
2.5098
2.5098
2.5098
2.5098
2.5098
2.5098
2.5098
2.5098
2.5098
2.5098
2.5098
2.5098
2.5098
2.5098
2.5098
2.5098
2.5098
2.5098
2.5098
2.5098
2.5098
2.5098
2.5098
2.5098
2.5098
2.5098
2.5098
2.5098
2.5098
2.5098
2.5098
2.5098
2.5098
2.5098
2.5098
2.5098
2.5098
2.5098
2.5098
2.5098
2.5098
2.5098
2.5098
2.5098
2.5098
2.5098
2.5098
2.5098
2.5098
2.5098
2.5098
2.5098
2.5098
2.5098
2.5098
2.5098
2.5098
2.5098
2.5098
2.5098
2.5098
2.5098
2.5098
2.5098
2.5098
2.5098
2.5098
2.5098
2.5098
2.5098
2.5098
2.5098
2.5098
2.5098
2.5098
2.5098
2.5098
2.5098
2.5098
2.5098
2.5098
2.5098
2.5098
2.5098
2.5098
2.5098
2.5098
2.5098
2.5098
2.5098
2.5098
2.5098
2.5098
2.5098
2.5098
2.5098
2.5098
2.5098
2.5098
2.5098
2.5098
2.5098
2.5098
2.5098
2.5098
2.5098
2.5098
2.5098
2.5098
2.5098
2.5098
2.5098
2.5098
2.5098
2.5098
2.5098
2.5098
2.5098
2.5098
2.5098
2.5098
2.5098
2.5098
2.5098
2.5098
2.5098
2.5098
2.5098
2.5098
2.5098
2.5098
2.5098
2.5098
2.5098
2.5098
2.5098
2.5098
2.5098
2.5098
2.5098
2.5098
2.5098
2.5098
2.5098
2.5098
2.5098
2.5098
2.5098
2.5098
2.5098
2.5098
2.5098
2.5098
2.5098
2.5098
2.5098
2.5098
2.5098
2.5098
2.5098
2.5098
2.5098
2.5098
2.5098
2.5098
2.5098
2.5098
2.5098
2.5098
2.5098
2.5098
2.5098
2.5098
2.5098
2.5098
2.5098
2.5098
2.5098
2.5098
2.5098
2.5098
2.5098
2.5098
2.5098
2.5098
2.5098
2.5098
2.5098
2.5098
2.5098
2.5098
2.5098
2.5098
2.5098
2.5098
2.5098
2.5098
2.5098
2.5098
2.5098
2.5098
2.5098
2.5098
2.5098
2.5098
2.5098
2.5098
2.5098
2.5098
2.5098
2.5098
2.5098
2.5098
2.5098
2.5098
2.5098
2.5098
2.5098
2.5098
2.5098
2.5098
2.5098
2.5098
2.5098
2.5098
2.5098
2.5098
2.5098
2.5098
2.5098
2.5098
2.5098
2.5098
2.5098
2.5098
2.5098
2.5098
2.5098
2.5098
2.5098
2.5098
2.5098
2.5098
2.5098
2.5098
2.5098
2.5098
2.5098
2.5098
2.5098
2.5098
2.5098
2.5098
2.5098
2.5098
2.5098
2.5098
2.5098
2.5098
2.5098
2.5098
2.5098
2.5098
2.5098
2.5098
2.5098
2.5098
2.5098
2.5098
2.5098
2.5098
2.5098
2.5098
2.5098
2.5098
2.5098
2.5098
2.5098
2.5098
2.5098
2.5098
2.5098
2.5098
2.5098
2.5098
2.5098
2.5098
2.5098
2.5098
2.5098
2.5098
2.5098
2.5098
2.5098
2.5098
2.5098
2.5098
2.5098
2.5098
2.5098
2.5098
2.5098
2.5098
2.5098
2.5098
2.5098
2.5098
2.5098
2.5098
2.5098
2.5098
2.5098
2.5098
2.5098
2.5098
2.5098
2.5098
2.5098
2.5098
2.5098
2.5098
2.5098
2.5098
2.5098
2.5098
2.5098
2.5098
2.5098
2.5098
2.5098
2.5098
2.5098
2.5098
2.5098
2.5098
2.5098
2.5098
2.5098
2.5098
2.5098
2.5098
2.5098
2.5098
2.5098
2.5098
2.5098
2.5098
2.5098
2.5098
2.5098
2.5098
2.5098
2.5098
2.5098
2.5098
2.5098
2.5098
2.5098
2.5098
2.5098
2.5098
2.5098
2.5098
2.5098
2.5098
2.5098
2.5098
2.5098
2.5098
2.5098
2.5098
2.5098
2.5098
2.5098
2.5098
2.5098
2.5098
2.5098
2.5098
2.5098
2.5098
2.5098
2.5098
2.5098
2.5098
2.5098
2.5098
2.5098
2.5098
2.5098
2.5098
2.5098
2.5098
2.5098
2.5098
2.5098
2.5098
2.5098
2.5098
2.5098
2.5098
2.5098
2.5098
2.5098
2.5098
2.5098
2.5098
2.5098
2.5098
2.5098
2.5098
2.5098
2.5098
2.5098
2.5098
2.5098
2.5098
2.5098
2.5098
2.5098
2.5098
2.5098
2.5098
2.5098
2.5098
2.5098
2.5098
2.5098
2.5098
2.5098
2.5098
2.5098
2.5098
2.5098
2.5098
2.5098
2.5098
2.5098
2.5098
2.5098
2.5098
2.5098
2.5098
2.5098
2.5098
2.5098
2.5098
2.5098
2.5098
2.5098
2.5098
2.5098
2.5098
2.5098
2.5098
2.5098
2.5098
2.5098
2.5098
2.5098
2.5098
2.5098
2.5098
2.5098
2.5098
2.5098
2.5098
2.5098
2.5098
2.5098
2.5098
2.5098
2.5098
2.5098
2.5098
2.5098
2.5098
2.5098
2.5098
2.5098
2.5098
2.5098
2.5098
2.5098
2.5098
2.5098
2.5098
2.5098
2.5098
2.5098
2.5098
2.5098
2.5098
2.5098
2.5098
2.5098
2.5098
2.5098
2.5098
2.5098
2.5098
2.5098
2.5098
2.5098
2.5098
2.5098
2.5098
2.5098
2.5098
2.5098
2.5098
2.5098
2.5098
2.5098
2.5098
2.5098
2.5098
2.5098
2.5098
2.5098
2.5098
2.5098
2.5098
2.5098
2.5098
2.5098
2.5098
2.5098
2.5098
2.5098
2.5098
2.5098
2.5098
2.5098
2.5098
2.5098
2.5098
2.5098
2.5098
2.5098
2.5098
2.5098
2.5098
2.5098
2.5098
2.5098
2.5098
2.5098
2.5098
2.5098
2.5098
2.5098
2.5098
2.5098
2.5098
2.5098
2.5098
2.5098
2.5098
2.5098
2.5098
2.5098
2.5098
2.5098
2.5098
2.5098
2.5098
2.5098
2.5098
2.5098
2.5098
2.5098
2.5098
2.5098
2.5098
2.5098
2.5098
2.5098
2.5098
2.5098
2.5098
2.5098
2.5098
2.5098
2.5098
2.5098
2.5098
2.5098
2.5098
2.5098
2.5098
2.5098
2.5098
2.5098
2.5098
2.5098
2.5098
2.5098
2.5098
2.5098
2.5098
2.5098
2.5098
2.5098
2.5098
2.5098
2.5098
2.5098
2.5098
2.5098
2.5098
2.5098
2.5098
2.5098
2.5098
2.5098
2.5098
2.5098
2.5098
2.5098
2.5098
2.5098
2.5098
2.5098
2.5098
2.5098
2.5098
2.5098
2.5098
2.5098
2.5098
2.5098
2.5098
2.5098
2.5098
2.5098
2.5098
2.5098
2.5098
2.5098
2.5098
2.5098
2.5098
2.5098
2.5098
2.5098
2.5098
2.5098
2.5098
2.5098
2.5098
2.5098
2.5098
2.5098
2.5098
2.5098
2.5098
2.5098
2.5098
2.5098
2.5098
2.5098
2.5098
2.5098
2.5098
2.5098
2.5098
2.5098
2.5098
2.5098
2.5098
2.5098
2.5098
2.5098
2.5098
2.5098
2.5098
2.5098
2.5098
2.5098
2.5098
2.5098
2.5098
2.5098
2.5098
2.5098
2.5098
2.5098
2.5098
2.5098
2.5098
2.5098
2.5098
2.5098
2.5098
2.5098
2.5098
2.5098
2.5098
2.5098
2.5098
2.5098
2.5098
2.5098
2.5098
2.5098
2.5098
2.5098
2.5098
2.5098
2.5098
2.5098
2.5098
2.5098
2.5098
2.5098
2.5098
2.5098
2.5098
2.5098
2.5098
2.5098
2.5098
2.5098
2.5098
2.5098
2.5098
2.5098
2.5098
2.5098
2.5098
2.5098
2.5098
2.5098
2.5098
2.5098
2.5098
2.5098
2.5098
2.5098
2.5098
2.5098
2.5098
2.5098
2.5098
2.5098
2.5098
2.5098
2.5098
2.5098
2.5098
2.5098
2.5098
2.5098
2.5098
2.5098
2.5098
2.5098
2.5098
2.5098
2.5098
2.5098
2.5098
2.5098
2.5098
2.5098
2.5098
2.5098
2.5098
2.5098
2.5098
2.5098
2.5098
2.5098
2.5098
2.5098
2.5098
2.5098
2.5098
2.5098
2.5098
2.5098
2.5098
2.5098
2.5098
2.5098
2.5098
2.5098
2.5098
2.5098
2.5098
2.5098
2.5098
2.5098
2.5098
2.5098
2.5098
2.5098
2.5098
2.5098
2.5098
2.5098
2.5098
2.5098
2.5098
2.5098
2.5098
2.5098
2.5098
2.5098
2.5098
2.5098
2.5098
2.5098
2.5098
2.5098
2.5098
2.5098
2.5098
2.5098
2.5098
2.5098
2.5098
2.5098
2.5098
2.5098
2.5098
2.5098
2.5098
2.5098
2.5098
2.5098
2.5098
2.5098
2.5098
2.5098
2.5098
2.5098
2.5098
2.5098
2.5098
2.5098
2.5098
2.5098
2.5098
2.5098
2.5098
2.5098
2.5098
2.5098
2.5098
2.5098
2.5098
2.5098
2.5098
2.5098
2.5098
2.5098
2.5098
2.5098
2.5098
2.5098
2.5098
2.5098
2.5098
2.5098
2.5098
2.5098
2.5098
2.5098
2.5098
2.5098
2.5098
2.5098
2.5098
2.5098
2.5098
2.5098
2.5098
2.5098
2.5098
2.5098
2.5098
2.5098
2.5098
2.5098
2.5098
2.5098
2.5098
2.5098
2.5098
2.5098
2.5098
2.5098
2.5098
2.5098
2.5098
2.5098
2.5098
2.5098
2.5098
2.5098
2.5098
2.5098
2.5098
2.5098
2.5098
2.5098
2.5098
2.5098
2.5098
2.5098
2.5098
2.5098
2.5098
2.5098
2.5098
2.5098
2.5098
2.5098
2.5098
2.5098
2.5098
2.5098
2.5098
2.5098
2.5098
2.5098
2.5098
2.5098
2.5098
2.5098
2.5098
2.5098
2.5098
2.5098
2.5098
2.5098
2.5098
2.5098
2.5098
2.5098
2.5098
2.5098
2.5098
2.5098
2.5098
2.5098
2.5098
2.5098
2.5098
2.5098
2.5098
2.5098
2.5098
2.5098
2.5098
2.5098
2.5098
2.5098
2.5098
2.5098
2.5098
2.5098
2.5098
2.5098
2.5098
2.5098
2.5098
2.5098
2.5098
2.5098
2.5098
2.5098
2.5098
2.5098
2.5098
2.5098
2.5098
2.5098
2.5098
2.5098
2.5098
2.5098
2.5098
2.5098
2.5098
2.5098
2.5098
2.5098
2.5098
2.5098
2.5098
2.5098
2.5098
2.5098
2.5098
2.5098
2.5098
2.5098
2.5098
2.5098
2.5098
2.5098
2.5098
2.5098
2.5098
2.5098
2.5098
2.5098
2.5098
2.5098
2.5098
2.5098
2.5098
2.5098
2.5098
2.5098
2.5098
2.5098
2.5098
2.5098
2.5098
2.5098
2.5098
2.5098
2.5098
2.5098
2.5098
2.5098
2.5098
2.5098
2.5098
2.5098
2.5098
2.5098
2.5098
2.5098
2.5098
2.5098
2.5098
2.5098
2.5098
2.5098
2.5098
2.5098
2.5098
2.5098
2.5098
2.5098
2.5098
2.5098
2.5098
2.5098
2.5098
2.5098
2.5098
2.5098
2.5098
2.5098
2.5098
2.5098
2.5098
2.5098
2.5098
2.5098
2.5098
2.5098
2.5098
2.5098
2.5098
2.5098
2.5098
2.5098
2.5098
2.5098
2.5098
2.5098
2.5098
2.5098
2.5098
2.5098
2.5098
2.5098
2.5098
2.5098
2.5098
2.5098
2.5098
2.5098
2.5098
2.5098
2.5098
2.5098
2.5098
2.5098
2.5098
2.5098
2.5098
2.5098
2.5098
2.5098
2.5098
2.5098
2.5098
2.5098
2.5098
2.5098
2.5098
2.5098
2.5098
2.5098
2.5098
2.5098
2.5098
2.5098
2.5098
2.5098
2.5098
2.5098
2.5098
2.5098
2.5098
2.5098
2.5098
2.5098
2.5098
2.5098
2.5098
2.5098
2.5098
2.5098
2.5098
2.5098
2.5098
2.5098
2.5098
2.5098
2.5098
2.5098
2.5098
2.5098
2.5098
2.5098
2.5098
2.5098
2.5098
2.5098
2.5098
2.5098
2.5098
2.5098
2.5098
2.5098
2.5098
2.5098
2.5098
2.5098
2.5098
2.5098
2.5098
2.5098
2.5098
2.5098
2.5098
2.5098
2.5098
2.5098
2.5098
2.5098
2.5098
2.5098
2.5098
2.5098
2.5098
2.5098
2.5098
2.5098
2.5098
2.5098
2.5098
2.5098
2.5098
2.5098
2.5098
2.5098
2.5098
2.5098
2.5098
2.5098
2.5098
2.5098
2.5098
2.5098
2.5098
2.5098
2.5098
2.5098
2.5098
2.5098
2.5098
2.5098
2.5098
2.5098
2.5098
2.5098
2.5098
2.5098
2.5098
2.5098
2.5098
2.5098
2.5098
2.5098
2.5098
2.5098
2.5098
2.5098
2.5098
2.5098
2.5098
2.5098
2.5098
2.5098
2.5098
2.5098
2.5098
2.5098
2.5098
2.5098
2.5098
2.5098
2.5098
2.5098
2.5098
2.5098
2.5098
2.5098
2.5098
2.5098
2.5098
2.5098
2.5098
2.5098
2.5098
2.5098
2.5098
2.5098
2.5098
2.5098
2.5098
2.5098
2.5098
2.5098
2.5098
2.5098
2.5098
2.5098
2.5098
2.5098
2.5098
2.5098
2.5098
2.5098
2.5098
2.5098
2.5098
2.5098
2.5098
2.5098
2.5098
2.5098
2.5098
2.5098
2.5098
2.5098
2.5098
2.5098
2.5098
2.5098
2.5098
2.5098
2.5098
2.5098
2.5098
2.5098
2.5098
2.5098
2.5098
2.5098
2.5098
2.5098
2.5098
2.5098
2.5098
2.5098
2.5098
2.5098
2.5098
2.5098
2.5098
2.5098
2.5098
2.5098
2.5098
2.5098
2.5098
2.5098
2.5098
2.5098
2.5098
2.5098
2.5098
2.5098
2.5098
2.5098
2.5098
2.5098
2.5098
2.5098
2.5098
2.5098
2.5098
2.5098
2.5098
2.5098
2.5098
2.5098
2.5098
2.5098
2.5098
2.5098
2.5098
2.5098
2.5098
2.5098
2.5098
2.5098
2.5098
2.5098
2.5098
2.5098
2.5098
2.5098
2.5098
2.5098
2.5098
2.5098
2.5098
2.5098
2.5098
2.5098
2.5098
2.5098
2.5098
2.5098
2.5098
2.5098
2.5098
2.5098
2.5098
2.5098
2.5098
2.5098
2.5098
2.5098
2.5098
2.5098
2.5098
2.5098
2.5098
2.5098
2.5098
2.5098
2.5098
2.5098
2.5098
2.5098
2.5098
2.5098
2.5098
2.5098
2.5098
2.5098
2.5098
2.5098
2.5098
2.5098
2.5098
2.5098
2.5098
2.5098
2.5098
2.5098
2.5098
2.5098
2.5098
2.5098
2.5098
2.5098
2.5098
2.5098
2.5098
2.5098
2.5098
2.5098
2.5098
2.5098
2.5098
2.5098
2.5098
2.5098
2.5098
2.5098
2.5098
2.5098
2.5098
2.5098
2.5098
2.5098
2.5098
2.5098
2.5098
2.5098
2.5098
2.5098
2.5098
2.5098
2.5098
2.5098
2.5098
2.5098
2.5098
2.5098
2.5098
2.5098
2.5098
2.5098
2.5098
2.5098
2.5098
2.5098
2.5098
2.5098
2.5098
2.5098
2.5098
2.5098
2.5098
2.5098
2.5098
2.5098
2.5098
2.5098
2.5098
2.5098
2.5098
2.5098
2.5098
2.5098
2.5098
2.5098
2.5098
2.5098
2.5098
2.5098
2.5098
2.5098
2.5098
2.5098
2.5098
2.5098
2.5098
2.5098
2.5098
2.5098
2.5098
2.5098
2.5098
2.5098
2.5098
2.5098
2.5098
2.5098
2.5098
2.5098
2.5098
2.5098
2.5098
2.5098
2.5098
2.5098
2.5098
2.5098
2.5098
2.5098
2.5098
2.5098
2.5098
2.5098
2.5098
2.5098
2.5098
2.5098
2.5098
2.5098
2.5098
2.5098
2.5098
2.5098
2.5098
2.5098
2.5098
2.5098
2.5098
2.5098
2.5098
2.5098
2.5098
2.5098
2.5098
2.5098
2.5098
2.5098
2.5098
2.5098
2.5098
2.5098
2.5098
2.5098
2.5098
2.5098
2.5098
2.5098
2.5098
2.5098
2.5098
2.5098
2.5098
2.5098
2.5098
2.5098
2.5098
2.5098
2.5098
2.5098
2.5098
2.5098
2.5098
2.5098
2.5098
2.5098
2.5098
2.5098
2.5098
2.5098
2.5098
2.5098
2.5098
2.5098
2.5098
2.5098
2.5098
2.5098
2.5098
2.5098
2.5098
2.5098
2.5098
2.5098
2.5098
2.5098
2.5098
2.5098
2.5098
2.5098
2.5098
2.5098
2.5098
2.5098
2.5098
2.5098
2.5098
2.5098
2.5098
2.5098
2.5098
2.5098
2.5098
2.5098
2.5098
2.5098
2.5098
2.5098
2.5098
2.5098
2.5098
2.5098
2.5098
2.5098
2.5098
2.5098
2.5098
2.5098
2.5098
2.5098
2.5098
2.5098
2.5098
2.5098
2.5098
2.5098
2.5098
2.5098
2.5098
2.5098
2.5098
2.5098
2.5098
2.5098
2.5098
2.5098
2.5098
2.5098
2.5098
2.5098
2.5098
2.5098
2.5098
2.5098
2.5098
2.5098
2.5098
2.5098
2.5098
2.5098
2.5098
2.5098
2.5098
2.5098
2.5098
2.5098
2.5098
2.5098
2.5098
2.5098
2.5098
2.5098
2.5098
2.5098
2.5098
2.5098
2.5098
2.5098
2.5098
2.5098
2.5098
2.5098
2.5098
2.5098
2.5098
2.5098
2.5098
2.5098
2.5098
2.5098
2.5098
2.5098
2.5098
2.5098
2.5098
2.5098
2.5098
2.5098
2.5098
2.5098
2.5098
2.5098
2.5098
2.5098
2.5098
2.5098
2.5098
2.5098
2.5098
2.5098
2.5098
2.5098
2.5098
2.5098
2.5098
2.5098
2.5098
2.5098
2.5098
2.5098
2.5098
2.5098
2.5098
2.5098
2.5098
2.5098
2.5098
2.5098
2.5098
2.5098
2.5098
2.5098
2.5098
2.5098
2.5098
2.5098
2.5098
2.5098
2.5098
2.5098
2.5098
2.5098
2.5098
2.5098
2.5098
2.5098
2.5098
2.5098
2.5098
2.5098
2.5098
2.5098
2.5098
2.5098
2.5098
2.5098
2.5098
2.5098
2.5098
2.5098
2.5098
2.5098
2.5098
2.5098
2.5098
2.5098
2.5098
2.5098
2.5098
2.5098
2.5098
2.5098
2.5098
2.5098
2.5098
2.5098
2.5098
2.5098
2.5098
2.5098
2.5098
2.5098
2.5098
2.5098
2.5098
2.5098
2.5098
2.5098
2.5098
2.5098
2.5098
2.5098
2.5098
2.5098
2.5098
2.5098
2.5098
2.5098
2.5098
2.5098
2.5098
2.5098
2.5098
2.5098
2.5098
2.5098
2.5098
2.5098
2.5098
2.5098
2.5098
2.5098
2.5098
2.5098
2.5098
2.5098
2.5098
2.5098
2.5098
2.5098
2.5098
2.5098
2.5098
2.5098
2.5098
2.5098
2.5098
2.5098
2.5098
2.5098
2.5098
2.5098
2.5098
2.5098
2.5098
2.5098
2.5098
2.5098
2.5098
2.5098
2.5098
2.5098
2.5098
2.5098
2.5098
2.5098
2.5098
2.5098
2.5098
2.5098
2.5098
2.5098
2.5098
2.5098
2.5098
2.5098
2.5098
2.5098
2.5098
2.5098
2.5098
2.5098
2.5098
2.5098
2.5098
2.5098
2.5098
2.5098
2.5098
2.5098
2.5098
2.5098
2.5098
2.5098
2.5098
2.5098
2.5098
2.5098
2.5098
2.5098
2.5098
2.5098
2.5098
2.5098
2.5098
2.5098
2.5098
2.5098
2.5098
2.5098
2.5098
2.5098
2.5098
2.5098
2.5098
2.5098
2.5098
2.5098
2.5098
2.5098
2.5098
2.5098
2.5098
2.5098
2.5098
2.5098
2.5098
2.5098
2.5098
2.5098
2.5098
2.5098
2.5098
2.5098
2.5098
2.5098
2.5098
2.5098
2.5098
2.5098
2.5098
2.5098
2.5098
2.5098
2.5098
2.5098
2.5098
2.5098
2.5098
2.5098
2.5098
2.5098
2.5098
2.5098
2.5098
2.5098
2.5098
2.5098
2.5098
2.5098
2.5098
2.5098
2.5098
2.5098
2.5098
2.5098
2.5098
2.5098
2.5098
2.5098
2.5098
2.5098
2.5098
2.5098
2.5098
2.5098
2.5098
2.5098
2.5098
2.5098
2.5098
2.5098
2.5098
2.5098
2.5098
2.5098
2.5098
2.5098
2.5098
2.5098
2.5098
2.5098
2.5098
2.5098
2.5098
2.5098
2.5098
2.5098
2.5098
2.5098
2.5098
2.5098
2.5098
2.5098
2.5098
